{
  "project_info": {
    "project_number": "32236490539",
    "firebase_url": "https://khanmart-dd4d0.firebaseio.com",
    "project_id": "khanmart-dd4d0",
    "storage_bucket": "khanmart-dd4d0.appspot.com"
  },
  "client": [
    {
      "client_info": {
        "mobilesdk_app_id": "1:32236490539:android:6e06d592a93e46db3d3f6e",
        "android_client_info": {
          "package_name": "com.khanmart.customer"
        }
      },
      "oauth_client": [
        {
          "client_id": "32236490539-9b0bhjva7laggncpa5hq8153sa581cq4.apps.googleusercontent.com",
          "client_type": 1,
          "android_info": {
            "package_name": "com.khanmart.customer",
            "certificate_hash": "069e180b306565cdad0cda10a6aca61ca9b43de1"
          }
        },
        {
          "client_id": "32236490539-c4pta22r001cqbnsr1qhlmnuego50on2.apps.googleusercontent.com",
          "client_type": 1,
          "android_info": {
            "package_name": "com.khanmart.customer",
            "certificate_hash": "40bbd8c9275a53154168e34af53a9a2939150f74"
          }
        },
        {
          "client_id": "32236490539-jqsuva1o2jqhuktfipfbj6id3bgdnreg.apps.googleusercontent.com",
          "client_type": 1,
          "android_info": {
            "package_name": "com.khanmart.customer",
            "certificate_hash": "3e3026df1f592461a076d4aa789581417445d457"
          }
        },
        {
          "client_id": "32236490539-p9lrclgkpaqv40q6qupquhs06ipcgqtf.apps.googleusercontent.com",
          "client_type": 1,
          "android_info": {
            "package_name": "com.khanmart.customer",
            "certificate_hash": "bbc2de8d23d10604745e0962d49869fc6fd80673"
          }
        },
        {
          "client_id": "32236490539-hd3jdurtn1bbg6h2m4jgd1jd32fcgh22.apps.googleusercontent.com",
          "client_type": 3
        }
      ],
      "api_key": [
        {
          "current_key": "AIzaSyBpWvPTl00ppoJYiMC5jOdwHie_OyecQLU"
        }
      ],
      "services": {
        "appinvite_service": {
          "other_platform_oauth_client": [
            {
              "client_id": "32236490539-0rf2ei373gjn6cmmvsifgot9ru61sftg.apps.googleusercontent.com",
              "client_type": 3
            },
            {
              "client_id": "32236490539-8sctq1pv9qopju8puq94q6bvh36p8eq9.apps.googleusercontent.com",
              "client_type": 2,
              "ios_info": {
                "bundle_id": "com.khanmart.customer"
              }
            }
          ]
        }
      }
    },
    {
      "client_info": {
        "mobilesdk_app_id": "1:32236490539:android:00ccb3bf1df755cd3d3f6e",
        "android_client_info": {
          "package_name": "com.khanmart.rider"
        }
      },
      "oauth_client": [
        {
          "client_id": "32236490539-hd3jdurtn1bbg6h2m4jgd1jd32fcgh22.apps.googleusercontent.com",
          "client_type": 3
        }
      ],
      "api_key": [
        {
          "current_key": "AIzaSyBpWvPTl00ppoJYiMC5jOdwHie_OyecQLU"
        }
      ],
      "services": {
        "appinvite_service": {
          "other_platform_oauth_client": [
            {
              "client_id": "32236490539-0rf2ei373gjn6cmmvsifgot9ru61sftg.apps.googleusercontent.com",
              "client_type": 3
            },
            {
              "client_id": "32236490539-8sctq1pv9qopju8puq94q6bvh36p8eq9.apps.googleusercontent.com",
              "client_type": 2,
              "ios_info": {
                "bundle_id": "com.khanmart.customer"
              }
            }
          ]
        }
      }
    }
  ],
  "configuration_version": "1"
}